…
**2. Among the interesting variables in gapminder is life expectancy. How has global life expectancy changed between 1952 and 2007?**


```r
gapminder %>% 
  select(lifeExp, year) %>% 
  filter(year>=1952 & year<=2007) %>% 
  mutate(year=as.factor(year)) %>% 
  group_by(year)
```

```
## # A tibble: 1,704 × 2
## # Groups:   year [12]
##    lifeExp year 
##      <dbl> <fct>
##  1    28.8 1952 
##  2    30.3 1957 
##  3    32.0 1962 
##  4    34.0 1967 
##  5    36.1 1972 
##  6    38.4 1977 
##  7    39.9 1982 
##  8    40.8 1987 
##  9    41.7 1992 
## 10    41.8 1997 
## # ℹ 1,694 more rows
```
…
```r
gapminder %>% 
  select(country, pop, year) %>%
  filter(year>=1952) %>% 
  group_by(country) %>%
  summarize(max=max(pop),
            min=min(pop)) %>% 
  mutate(growth=max-min) %>% 
  arrange(desc(growth))
```

```
## # A tibble: 142 × 4
##    country              max       min    growth
##    <fct>              <int>     <int>     <int>
##  1 China         1318683096 556263527 762419569
##  2 India         1110396331 372000000 738396331
##  3 United States  301139947 157553000 143586947
##  4 Indonesia      223547000  82052000 141495000
##  5 Brazil         190010647  56602560 133408087
##  6 Pakistan       169270617  41346560 127924057
##  7 Bangladesh     150448339  46886859 103561480
##  8 Nigeria        135031164  33119096 101912068
##  9 Mexico         108700891  30144317  78556574
## 10 Philippines     91077287  22438691  68638596
## # ℹ 132 more rows
```
…
