…
## `superhero_info`
3. Let's say we are only interested in the variables name, alignment, and "race". How would you isolate these variables from `superhero_info`?


```r
superhero_info %>% 
  select(name, alignment, race)
```

```
## # A tibble: 734 × 3
##    name          alignment race             
##    <chr>         <chr>     <chr>            
##  1 A-Bomb        good      Human            
##  2 Abe Sapien    good      Icthyo Sapien    
##  3 Abin Sur      good      Ungaran          
##  4 Abomination   bad       Human / Radiation
##  5 Abraxas       bad       Cosmic Entity    
##  6 Absorbing Man bad       Human            
##  7 Adam Monroe   good      <NA>             
##  8 Adam Strange  good      Human            
##  9 Agent 13      good      <NA>             
## 10 Agent Bob     good      Human            
## # ℹ 724 more rows
```


## Not Human
4. List all of the superheros that are not human.


```r
superhero_info %>% 
  select(name, race) %>% 
  filter(!(race=="Human"))
```

```
## # A tibble: 222 × 2
##    name         race             
##    <chr>        <chr>            
##  1 Abe Sapien   Icthyo Sapien    
##  2 Abin Sur     Ungaran          
##  3 Abomination  Human / Radiation
##  4 Abraxas      Cosmic Entity    
##  5 Ajax         Cyborg           
##  6 Alien        Xenomorph XX121  
##  7 Amazo        Android          
##  8 Angel        Vampire          
##  9 Angel Dust   Mutant           
## 10 Anti-Monitor God / Eternal    
## # ℹ 212 more rows
```



## Good and Evil
5. Let's make two different data frames, one focused on the "good guys" and another focused on the "bad guys".


```r
good_guys <- superhero_info %>% 
  filter(alignment=="good")
good_guys
```

```
## # A tibble: 496 × 10
##    name  gender eye_color race  hair_color height publisher skin_color alignment
##    <chr> <chr>  <chr>     <chr> <chr>       <dbl> <chr>     <chr>      <chr>    
##  1 A-Bo… Male   yellow    Human No Hair       203 Marvel C… <NA>       good     
##  2 Abe … Male   blue      Icth… No Hair       191 Dark Hor… blue       good     
##  3 Abin… Male   blue      Unga… No Hair       185 DC Comics red        good     
##  4 Adam… Male   blue      <NA>  Blond          NA NBC - He… <NA>       good     
##  5 Adam… Male   blue      Human Blond         185 DC Comics <NA>       good     
##  6 Agen… Female blue      <NA>  Blond         173 Marvel C… <NA>       good     
##  7 Agen… Male   brown     Human Brown         178 Marvel C… <NA>       good     
##  8 Agen… Male   <NA>      <NA>  <NA>          191 Marvel C… <NA>       good     
##  9 Alan… Male   blue      <NA>  Blond         180 DC Comics <NA>       good     
## 10 Alex… Male   <NA>      <NA>  <NA>           NA NBC - He… <NA>       good     
## # ℹ 486 more rows
## # ℹ 1 more variable: weight <dbl>
```



```r
bad_guys <- superhero_info %>% 
  filter(alignment=="bad")
bad_guys
```

```
## # A tibble: 207 × 10
##    name  gender eye_color race  hair_color height publisher skin_color alignment
##    <chr> <chr>  <chr>     <chr> <chr>       <dbl> <chr>     <chr>      <chr>    
##  1 Abom… Male   green     Huma… No Hair       203 Marvel C… <NA>       bad      
##  2 Abra… Male   blue      Cosm… Black          NA Marvel C… <NA>       bad      
##  3 Abso… Male   blue      Human No Hair       193 Marvel C… <NA>       bad      
##  4 Air-… Male   blue      <NA>  White         188 Marvel C… <NA>       bad      
##  5 Ajax  Male   brown     Cybo… Black         193 Marvel C… <NA>       bad      
##  6 Alex… Male   <NA>      Human <NA>           NA Wildstorm <NA>       bad      
##  7 Alien Male   <NA>      Xeno… No Hair       244 Dark Hor… black      bad      
##  8 Amazo Male   red       Andr… <NA>          257 DC Comics <NA>       bad      
##  9 Ammo  Male   brown     Human Black         188 Marvel C… <NA>       bad      
## 10 Ange… Female <NA>      <NA>  <NA>           NA Image Co… <NA>       bad      
## # ℹ 197 more rows
## # ℹ 1 more variable: weight <dbl>
```
…
11. Let's make a new variable that is the ratio of height to weight. Call this variable `height_weight_ratio`.   


```r
superhero_info_new <- superhero_info %>% 
  mutate(height_weight_ratio = height/weight)
superhero_info_new
```

```
## # A tibble: 734 × 11
##    name  gender eye_color race  hair_color height publisher skin_color alignment
##    <chr> <chr>  <chr>     <chr> <chr>       <dbl> <chr>     <chr>      <chr>    
##  1 A-Bo… Male   yellow    Human No Hair       203 Marvel C… <NA>       good     
##  2 Abe … Male   blue      Icth… No Hair       191 Dark Hor… blue       good     
##  3 Abin… Male   blue      Unga… No Hair       185 DC Comics red        good     
##  4 Abom… Male   green     Huma… No Hair       203 Marvel C… <NA>       bad      
##  5 Abra… Male   blue      Cosm… Black          NA Marvel C… <NA>       bad      
##  6 Abso… Male   blue      Human No Hair       193 Marvel C… <NA>       bad      
##  7 Adam… Male   blue      <NA>  Blond          NA NBC - He… <NA>       good     
##  8 Adam… Male   blue      Human Blond         185 DC Comics <NA>       good     
##  9 Agen… Female blue      <NA>  Blond         173 Marvel C… <NA>       good     
## 10 Agen… Male   brown     Human Brown         178 Marvel C… <NA>       good     
## # ℹ 724 more rows
## # ℹ 2 more variables: weight <dbl>, height_weight_ratio <dbl>
```


12. Who has the highest height to weight ratio?   
## Groot


```r
superhero_info_new %>% 
  select(name, height_weight_ratio) %>% 
arrange(desc(superhero_info_new$height_weight_ratio))
```

```
## # A tibble: 734 × 2
##    name            height_weight_ratio
##    <chr>                         <dbl>
##  1 Groot                        175.  
##  2 Galactus                      54.8 
##  3 Fin Fang Foom                 54.2 
##  4 Longshot                       5.22
##  5 Jack-Jack                      5.07
##  6 Rocket Raccoon                 4.88
##  7 Dash                           4.52
##  8 Howard the Duck                4.39
##  9 Swarm                          4.17
## 10 Yoda                           3.88
## # ℹ 724 more rows
```
…
13. How many superheros have a combination of agility, stealth, super_strength, stamina?  

## 40 superheros

```r
superhero_powers %>% 
  select(hero_names, agility, stealth, super_strength, stamina) %>% 
  filter(agility=="TRUE") %>% 
  filter(stealth=="TRUE") %>% 
  filter(super_strength=="TRUE") %>% 
  filter(stamina=="TRUE")
```

```
## # A tibble: 40 × 5
##    hero_names  agility stealth super_strength stamina
##    <chr>       <lgl>   <lgl>   <lgl>          <lgl>  
##  1 Alex Mercer TRUE    TRUE    TRUE           TRUE   
##  2 Angel       TRUE    TRUE    TRUE           TRUE   
##  3 Ant-Man II  TRUE    TRUE    TRUE           TRUE   
##  4 Aquaman     TRUE    TRUE    TRUE           TRUE   
##  5 Batman      TRUE    TRUE    TRUE           TRUE   
##  6 Black Flash TRUE    TRUE    TRUE           TRUE   
##  7 Black Manta TRUE    TRUE    TRUE           TRUE   
##  8 Brundlefly  TRUE    TRUE    TRUE           TRUE   
##  9 Buffy       TRUE    TRUE    TRUE           TRUE   
## 10 Cable       TRUE    TRUE    TRUE           TRUE   
## # ℹ 30 more rows
```
…
