…
5. (3 points) How do the number and types of injuries compare by county? Make a table (not a plot) that shows the number of injury types by county. Which county has the highest number of fatalities?  

## San Luis Obispo has the highest number of fatalities (shown in the second table), and San Diego has the highest number of injuries (shown in the first table).

```r
sharks2 %>%
  select(county, incident_num, injury) %>% 
  group_by(county) %>% 
  summarize(total=n_distinct(incident_num)) %>% 
  arrange(desc(total))
```

```
## # A tibble: 21 × 2
##    county          total
##    <chr>           <int>
##  1 San Diego          23
##  2 Santa Barbara      19
##  3 Humboldt           18
##  4 San Mateo          18
##  5 Marin              16
##  6 Monterey           15
##  7 Santa Cruz         15
##  8 Sonoma             15
##  9 San Luis Obispo    14
## 10 Los Angeles         9
## # ℹ 11 more rows
```
…
13. (2 points) Using the `sharks` or the `white_sharks` data, what is one question that you are interested in exploring? Write the question and answer it using a plot or table.

## My question is: How do the number of incidents compare every year since 2000? Make a chart to show how this change, as well as the incidents for each species.


```r
sharks2 %>% 
  select(year, species, incident_num) %>% 
  group_by(year) %>% 
  summarize(total=n_distinct(incident_num)) %>% 
  arrange(desc(total))
```

```
## # A tibble: 63 × 2
##     year total
##    <dbl> <int>
##  1  2007     9
##  2  2004     8
##  3  2017     8
##  4  2020     8
##  5  1974     7
##  6  2012     7
##  7  2014     7
##  8  2015     7
##  9  2021     7
## 10  1959     5
## # ℹ 53 more rows
```
…
